module github.com/zephinzer/go-cronos

go 1.19

require (
	github.com/ethereum/go-ethereum v1.10.18
	github.com/go-telegram-bot-api/telegram-bot-api/v5 v5.5.1
	github.com/golang-migrate/migrate/v4 v4.15.2
	github.com/olekukonko/tablewriter v0.0.5
	github.com/sirupsen/logrus v1.8.1
	github.com/spf13/cobra v1.4.0
	github.com/stretchr/testify v1.7.0
	github.com/usvc/go-config v0.4.1
	gopkg.in/yaml.v2 v2.4.0
	gopkg.in/yaml.v3 v3.0.0-20210107192922-496545a6307b
)

require (
	github.com/StackExchange/wmi v0.0.0-20180116203802-5d049714c4a6 // indirect
	github.com/btcsuite/btcd/btcec/v2 v2.2.0 // indirect
	github.com/davecgh/go-spew v1.1.1 // indirect
	github.com/deckarep/golang-set v1.8.0 // indirect
	github.com/decred/dcrd/dcrec/secp256k1/v4 v4.0.1 // indirect
	github.com/fsnotify/fsnotify v1.4.9 // indirect
	github.com/go-ole/go-ole v1.2.1 // indirect
	github.com/go-sql-driver/mysql v1.6.0 // indirect
	github.com/go-stack/stack v1.8.0 // indirect
	github.com/google/uuid v1.3.0 // indirect
	github.com/gorilla/websocket v1.4.2 // indirect
	github.com/hashicorp/errwrap v1.1.0 // indirect
	github.com/hashicorp/go-multierror v1.1.1 // indirect
	github.com/hashicorp/hcl v1.0.0 // indirect
	github.com/inconshreveable/mousetrap v1.0.0 // indirect
	github.com/jinzhu/inflection v1.0.0 // indirect
	github.com/jinzhu/now v1.1.5 // indirect
	github.com/magiconair/properties v1.8.1 // indirect
	github.com/mattn/go-runewidth v0.0.9 // indirect
	github.com/mitchellh/mapstructure v1.4.1 // indirect
	github.com/pelletier/go-toml v1.9.3 // indirect
	github.com/pmezard/go-difflib v1.0.0 // indirect
	github.com/rjeczalik/notify v0.9.1 // indirect
	github.com/shirou/gopsutil v3.21.4-0.20210419000835-c7a38de76ee5+incompatible // indirect
	github.com/spf13/afero v1.6.0 // indirect
	github.com/spf13/cast v1.3.0 // indirect
	github.com/spf13/jwalterweatherman v1.0.0 // indirect
	github.com/spf13/pflag v1.0.5 // indirect
	github.com/spf13/viper v1.7.1 // indirect
	github.com/subosito/gotenv v1.2.0 // indirect
	github.com/tklauser/go-sysconf v0.3.5 // indirect
	github.com/tklauser/numcpus v0.2.2 // indirect
	go.uber.org/atomic v1.7.0 // indirect
	golang.org/x/crypto v0.0.0-20210921155107-089bfa567519 // indirect
	golang.org/x/sys v0.0.0-20220317061510-51cd9980dadf // indirect
	golang.org/x/text v0.3.7 // indirect
	gopkg.in/ini.v1 v1.51.0 // indirect
	gopkg.in/natefinch/npipe.v2 v2.0.0-20160621034901-c1b8fa8bdcce // indirect
	gorm.io/driver/mysql v1.4.3 // indirect
	gorm.io/gorm v1.23.8 // indirect
)
